simulate-species
…
sp1_data <- hwci_data(
  species = "species1",
  t = time_series,
  j = j,
  v = v_rising,
  m = m_rising,
  b = b_none,
  l = l_none,
  w = w_bar,
  r = r_rising,
  s = "CR"
)
sp1_data
#> # A tibble: 100 × 10
#>    species      t     j     v     m     b l             w     r s    
#>  * <chr>    <int> <dbl> <dbl> <dbl> <dbl> <list>    <dbl> <dbl> <chr>
#>  1 species1     1   100    26    11     0 <dbl [1]>  1000     9 CR   
#>  2 species1     2   100    40     1     0 <dbl [1]>  1000     9 CR   
#>  3 species1     3   100    16     4     0 <dbl [1]>  1000     6 CR   
#>  4 species1     4   100    16     0     0 <dbl [1]>  1000     0 CR   
#>  5 species1     5   100    14     4     0 <dbl [1]>  1000     4 CR   
#>  6 species1     6   100    30     7     0 <dbl [1]>  1000     2 CR   
#>  7 species1     7   100     9     7     0 <dbl [1]>  1000     5 CR   
#>  8 species1     8   100    24     4     0 <dbl [1]>  1000     3 CR   
#>  9 species1     9   100    43     5     0 <dbl [1]>  1000     3 CR   
#> 10 species1    10   100    11     5     0 <dbl [1]>  1000     7 CR   
#> # ℹ 90 more rows
…
Landscape aggregate indicators

Combine the data for the three species

allspp_dat <- combine_hwci_data(sp1_data, sp2_data, sp3_data)
#> 
#> Attaching package: 'rlang'
#> The following objects are masked from 'package:purrr':
#> 
#>     %@%, flatten, flatten_chr, flatten_dbl, flatten_int, flatten_lgl,
#>     flatten_raw, invoke, splice
allspp_dat
#> # A tibble: 100 × 10
#>    species                 t     j     v     m     b l             w     r s    
#>  * <chr>               <int> <dbl> <dbl> <dbl> <dbl> <list>    <dbl> <dbl> <chr>
#>  1 Landscape aggregate     1   100    52    22    16 <dbl>      1000    18 CR   
#>  2 Landscape aggregate     2   100    80     2    52 <dbl>      1000    10 CR   
#>  3 Landscape aggregate     3   100    32     8    34 <dbl>      1000    13 CR   
#>  4 Landscape aggregate     4   100    32     0    38 <dbl>      1000    10 CR   
#>  5 Landscape aggregate     5   100    28     8    40 <dbl>      1000    13 CR   
#>  6 Landscape aggregate     6   100    60    14    24 <dbl>      1000     9 CR   
#>  7 Landscape aggregate     7   100    18    14    24 <dbl>      1000     9 CR   
#>  8 Landscape aggregate     8   100    48     8    34 <dbl>      1000     6 CR   
#>  9 Landscape aggregate     9   100    86    10    48 <dbl>      1000     7 CR   
#> 10 Landscape aggregate    10   100    22    10     6 <dbl [7]>  1000    17 CR   
#> # ℹ 90 more rows
…
